solid cb
  facet normal -1 0 0
    outer loop
      vertex 1 3 5
      vertex 1 3 6
      vertex 1 4 6
    endloop
  endfacet
  facet normal -1 0 0
    outer loop
      vertex 1 3 5
      vertex 1 4 6
      vertex 1 4 5
    endloop
  endfacet
  facet normal 1 0 0
    outer loop
      vertex 2 3 5
      vertex 2 4 6
      vertex 2 3 6
    endloop
  endfacet
  facet normal 1 0 0
    outer loop
      vertex 2 3 5
      vertex 2 4 5
      vertex 2 4 6
    endloop
  endfacet 
endsolid
